<?xml version="1.0" encoding="utf-8"?>
<!-- Generator: Adobe Illustrator 24.2.3, SVG Export Plug-In . SVG Version: 6.00 Build 0)  -->
<svg version="1.1" id="april6" xmlns="http://www.w3.org/2000/svg" xmlns:xlink="http://www.w3.org/1999/xlink" x="0px" y="0px"
	 viewBox="0 0 90.5 35.8" style="enable-background:new 0 0 90.5 35.8;" xml:space="preserve">
<style type="text/css">
	<!-- .st0{fill:#5BCBF5;}
	.st1{fill:#02034A;} -->
</style>
<path id="six" class="st0" d="M89.1,23.6c-2.9,4.7-9,6.1-13.7,3.1c0,0,0,0-0.1,0c-4.6-2.9-6-9-3.2-13.7L80.5,0l7.1,0l-5.4,8.4
	c5.5,1.1,9.1,6.3,8.1,11.8C90.1,21.5,89.7,22.6,89.1,23.6L89.1,23.6z"/>
<rect id="l" x="62.6" class="st1" width="5.9" height="27.9"/>
<g id="i">
	<rect id="Rectangle_1062" x="54.3" y="8.6" class="st1" width="5.9" height="19.3"/>
	<path id="Path_14098" class="st1" d="M57.3,0c1.9,0,3.4,1.5,3.4,3.4s-1.5,3.4-3.4,3.4c-1.9,0-3.4-1.5-3.4-3.4
		C53.9,1.5,55.4,0,57.3,0L57.3,0"/>
</g>
<path id="r" class="st1" d="M40.2,8.6h5.6v2.1h0.1c1-1.4,2.6-2.2,4.2-2.1c0.8,0,1.6,0.1,2.3,0.3l-0.8,5.5c-0.6-0.1-1.3-0.2-1.9-0.2
	c-2.3,0-3.5,1.4-3.5,4.2v9.4h-5.9L40.2,8.6z"/>
<path id="p" class="st1" d="M28.6,22.2c-2.1,0-3.7-1.7-3.7-3.7s1.7-3.7,3.7-3.7c2.1,0,3.7,1.7,3.7,3.7c0,0,0,0,0,0
	C32.4,20.6,30.7,22.2,28.6,22.2C28.6,22.2,28.6,22.2,28.6,22.2 M28.6,8.7c-1.6,0-3.1,0.4-4.5,1.1V8.6h-5.6v27.2h5.9l-0.1-8.5
	c4.9,2.4,10.8,0.3,13.1-4.5S37.8,12,32.9,9.7C31.6,9,30.1,8.7,28.6,8.7"/>
<path id="a" class="st1" d="M0.1,22.6c0-3,1.9-4.8,6.5-5.9c3.2-0.7,4.1-1.3,4.1-2.2c0-1-0.8-1.5-2.3-1.5c-1.7,0-2.8,1-3.1,2.9
	L0,14.8C0.6,11,4,8.4,8.4,8.4c4.9,0,8.1,2.9,8.1,7.3v12.2h-5.2v-1.6h-0.1c-0.8,1.3-2.6,2.1-4.8,2.1C2.5,28.4,0.1,26.2,0.1,22.6
	 M10.8,21.3V19h-0.1c-0.2,0.5-0.8,0.9-2.4,1.4c-2,0.6-2.6,1.1-2.6,1.9c0,0.9,0.6,1.4,1.9,1.4C9.4,23.7,10.8,22.6,10.8,21.3
	L10.8,21.3z"/>
</svg>
