<svg id="Group_11051" data-name="Group 11051" xmlns="http://www.w3.org/2000/svg" width="90.537" height="35.832" viewBox="0 0 90.537 35.832">
  <g id="Group_10667" data-name="Group 10667" transform="translate(0 8.36)">
    <path id="Path_14096" data-name="Path 14096" d="M272.9,296.04c0-3.022,1.919-4.762,6.47-5.865,3.2-.747,4.123-1.279,4.123-2.2,0-.96-.817-1.493-2.31-1.493-1.742,0-2.809,1-3.128,2.879l-5.261-1.1c.569-3.8,4.017-6.47,8.39-6.47,4.905,0,8.069,2.879,8.069,7.288v12.193H284.1V299.7h-.071c-.78,1.314-2.56,2.1-4.762,2.1-3.948,0-6.364-2.2-6.364-5.759m10.7-1.28V292.45h-.07c-.214.5-.818.853-2.381,1.351-1.955.569-2.63,1.067-2.63,1.92,0,.889.64,1.386,1.919,1.386,1.741,0,3.162-1.066,3.162-2.346Z" transform="translate(-272.796 -281.786)" fill="#02034a"/>
    <path id="Path_14097" data-name="Path 14097" d="M524.859,283.507h5.581v2.111h.071a4.927,4.927,0,0,1,4.229-2.1,10.056,10.056,0,0,1,2.311.284l-.817,5.546a9.045,9.045,0,0,0-1.919-.177c-2.31,0-3.519,1.422-3.519,4.229v9.372h-5.936Z" transform="translate(-484.639 -283.232)" fill="#02034a"/>
  </g>
  <rect id="Rectangle_1062" data-name="Rectangle 1062" width="5.936" height="19.268" transform="translate(54.285 8.634)" fill="#02034a"/>
  <rect id="Rectangle_1063" data-name="Rectangle 1063" width="5.937" height="27.902" transform="translate(62.648 0)" fill="#02034a"/>
  <g id="Group_10668" data-name="Group 10668" transform="translate(18.505 0)">
    <path id="Path_14098" data-name="Path 14098" d="M613.813,229.394a3.379,3.379,0,1,1-3.38,3.38,3.38,3.38,0,0,1,3.38-3.38" transform="translate(-575.065 -229.394)" fill="#02034a"/>
    <path id="a6-six" data-name="Path 14099" d="M734.005,253.035a9.933,9.933,0,0,1-13.759,3.106,10.073,10.073,0,0,1-3.192-13.676l8.435-13.07,7.108.015-5.424,8.446a10.258,10.258,0,0,1,8.143,11.815,10.074,10.074,0,0,1-1.31,3.365Z" transform="translate(-663.459 -229.395)" fill="#5bcbf5"/>
    <path id="Path_14100" data-name="Path 14100" d="M398.9,297.1a3.728,3.728,0,1,1,3.728-3.727A3.727,3.727,0,0,1,398.9,297.1m0-13.544a9.773,9.773,0,0,0-4.524,1.1v-1.153h-5.606v27.2H394.7l-.084-8.5a9.817,9.817,0,1,0,4.288-18.649" transform="translate(-388.773 -274.873)" fill="#02034a"/>
  </g>
</svg>
