<svg xmlns="http://www.w3.org/2000/svg" viewBox="0 0 198 198" class="fill-current">
  <g id="Layer_2" data-name="Layer 2">
    <g id="quarter">
      <path d="M0,0C0,109.35,88.65,198,198,198V0Z"/>
    </g>
  </g>
</svg>
